﻿{
    "attributes": [
        {
            "strAttributes": "btnLessSaggy",
            "signs": [
                {
                    "strSign": "Saggy cheeks",
                    "strCode": "Ck3"
                },
                {
                    "strSign": "Deep nasolabial folds",
                    "strCode": ""
                },
                {
                    "strSign": "Marionette lines",
                    "strCode": ""
                },
                {
                    "strSign": "Jowls",
                    "strCode": ""
                },
                {
                    "strSign": "Poor skin quality",
                    "strCode": ""
                }
            ]
        },
        {
            "strAttributes": "btnLessSad",
            "signs": [
                {
                    "strSign": "Low brows",
                    "strCode": ""
                },
                {
                    "strSign": "Downturn of the corner of the eye",
                    "strCode": "Ck3"
                },
                {
                    "strSign": "Lines around the eyes",
                    "strCode": ""
                },
                {
                    "strSign": "Saggy cheeks",
                    "strCode": "Ck3"
                },
                {
                    "strSign": "Deep nasolabial folds",
                    "strCode": ""
                },
                {
                    "strSign": "Lack of lip structure",
                    "strCode": ""
                },
                {
                    "strSign": "Downturn or oral comissures",
                    "strCode": ""
                },
                {
                    "strSign": "Deep marionette lines",
                    "strCode": ""
                },
                {
                    "strSign": "Poor skin quality",
                    "strCode": ""
                }
            ]
        },
        {
            "strAttributes": "btnLessTired",
            "signs": [
                {
                    "strSign": "Low brows",
                    "strCode": ""
                },
                {
                    "strSign": "Eyebags",
                    "strCode": "Ck3"
                },
                {
                    "strSign": "Saggy cheeks",
                    "strCode": "Ck3"
                },
                {
                    "strSign": "Lines around the eyes",
                    "strCode": ""
                },
                {
                    "strSign": "Poor skin quality",
                    "strCode": ""
                }
            ]
        },
        {
            "strAttributes": "btnLessAngry",
            "signs": [
                {
                    "strSign": "Lines around the eyes",
                    "strCode": ""
                },
                {
                    "strSign": "Tension in the lips and chin",
                    "strCode": ""
                }
            ]
        },
        {
            "strAttributes": "btnSlimmer",
            "signs": [
                {
                    "strSign": "To modify a square, round or heavy face",
                    "strCode": ""
                }
            ]
        },
        {
            "strAttributes": "btnMoreFeminine",
            "signs": [
                {
                    "strSign": "Prominent forehead",
                    "strCode": ""
                },
                {
                    "strSign": "Sunken temples",
                    "strCode": ""
                },
                {
                    "strSign": "Lines around the eyes",
                    "strCode": ""
                },
                {
                    "strSign": "To create higher brows",
                    "strCode": ""
                },
                {
                    "strSign": "To create fullness in the upper cheek",
                    "strCode": "Ck3"
                },
                {
                    "strSign": "To create definition/fullness in the lower cheek",
                    "strCode": ""
                },
                {
                    "strSign": "To create full and defined lips",
                    "strCode": ""
                },
                {
                    "strSign": "To create a triangular chin",
                    "strCode": ""
                },
                {
                    "strSign": "Poor skin quality",
                    "strCode": ""
                }
            ]
        },
        {
            "strAttributes": "btnMoreMasculine",
            "signs": [
                {
                    "strSign": "To create a projected supraorbital ridge",
                    "strCode": ""
                },
                {
                    "strSign": "To create a square chin",
                    "strCode": ""
                },
                {
                    "strSign": "To create a strong jawline",
                    "strCode": ""
                },
                {
                    "strSign": "To create strong cheekbones",
                    "strCode": ""
                },
                {
                    "strSign": "To define and slim the face",
                    "strCode": ""
                }
            ]
        },
        {
            "strAttributes": "btnYounger",
            "signs": [
                {
                    "strSign": "Volume loss in the head",
                    "strCode": ""
                },
                {
                    "strSign": "Volume loss in the temples",
                    "strCode": ""
                },
                {
                    "strSign": "Low eyebrows",
                    "strCode": ""
                },
                {
                    "strSign": "Lines around the eyes",
                    "strCode": ""
                },
                {
                    "strSign": "Eyebags",
                    "strCode": "Ck3"
                },
                {
                    "strSign": "Saggy cheeks",
                    "strCode": "Ck3"
                },
                {
                    "strSign": "Deep nasolabial folds",
                    "strCode": ""
                },
                {
                    "strSign": "Deflated and hollow cheeks",
                    "strCode": "Ck3"
                },
                {
                    "strSign": "Marionette lines",
                    "strCode": ""
                },
                {
                    "strSign": "Deflated and wrinkled lips",
                    "strCode": ""
                },
                {
                    "strSign": "Jawline sagginess",
                    "strCode": ""
                },
                {
                    "strSign": "Ageing chin",
                    "strCode": ""
                },
                {
                    "strSign": "Poor skin quality",
                    "strCode": ""
                }
            ]
        },
        {
            "strAttributes": "btnMoreAttractive",
            "signs": [
                {
                    "strSign": "Volume loss in the forehead",
                    "strCode": ""
                },
                {
                    "strSign": "Volume loss in the temples",
                    "strCode": ""
                },
                {
                    "strSign": "Low eyebrows",
                    "strCode": ""
                },
                {
                    "strSign": "Lines around the eyes",
                    "strCode": ""
                },
                {
                    "strSign": "Eyebags/prominent tear trough",
                    "strCode": "Ck3"
                },
                {
                    "strSign": "Saggy cheeks",
                    "strCode": "Ck3"
                },
                {
                    "strSign": "Deep nasolabial folds",
                    "strCode": ""
                },
                {
                    "strSign": "Hollow cheeks",
                    "strCode": "Ck3"
                },
                {
                    "strSign": "Marionette lines",
                    "strCode": ""
                },
                {
                    "strSign": "Deflated and wrinkled lips",
                    "strCode": ""
                },
                {
                    "strSign": "Jawline sagginess",
                    "strCode": ""
                },
                {
                    "strSign": "Ageing chin",
                    "strCode": ""
                },
                {
                    "strSign": "Poor skin quality",
                    "strCode": ""
                }
            ]
        },
        {
            "strAttributes": "btnExtra",
            "signs": [
                {
                    "strSign": "No Codes assigned",
                    "strCode": ""
                }
            ]
        },
        {
            "strAttributes": "btnGtoxOtox",
            "signs": [
                {
                    "strSign": "Gtox Otox",
                    "strCode": ""
                }
            ]
        }
    ]
}