﻿{
    "mdCodeInfo": [
        {
            "code": "F1",
            "product": "VL (mild/moderate) \nVL (severe) \nVB/VT",
            "facial_landmarks": "Forehead",
            "target_layer": "Bone \nBone \n",
            "tool": "Needle \nCannula \nNeedle",
            "delivery": "Small bolus \nFanning \nMicro-aliquot",
            "volume_range": "0.1-0.5 \n0.1-0.5 \n0.1-0.3"
        },
        {
            "code": "F2",
            "product": "VL (mild/moderate) \nVL (severe) \nVB/VT",
            "facial_landmarks": "Forehead",
            "target_layer": "Bone \nBone \n",
            "tool": "Needle \nCannula \nNeedle",
            "delivery": "Small bolus \nFanning \nMicro-aliquot",
            "volume_range": "0.1-0.5 \n0.1-0.5 \n0.1-0.3"
        },
        {
            "code": "F3",
            "product": "VL (mild/moderate) \nVL (severe) \nVB/VT",
            "facial_landmarks": "Forehead",
            "target_layer": "Bone \nBone \n",
            "tool": "Needle \nCannula \nNeedle",
            "delivery": "Small bolus \nFanning \nMicro-aliquot",
            "volume_range": "0.1-0.5 \n0.1-0.5 \n0.1-0.3"
        },
        {
            "code": "T1",
            "product": "VM",
            "facial_landmarks": "Temple",
            "target_layer": "Bone",
            "tool": "Needle",
            "delivery": "Small bolus",
            "volume_range": "0.5-1.0"
        },
        {
            "code": "T2",
            "product": "VM",
            "facial_landmarks": "Temple",
            "target_layer": "Bone",
            "tool": "Needle",
            "delivery": "Small bolus",
            "volume_range": "0.5-1.0"
        },
        {
            "code": "T1+T2 ",
            "product": "VM",
            "facial_landmarks": "Temple",
            "target_layer": "Fascia",
            "tool": "Cannula",
            "delivery": "Fanning",
            "volume_range": "0.5-1.0"
        },
        {
            "code": "E1",
            "product": "VL",
            "facial_landmarks": "Eyebrow",
            "target_layer": "Bone",
            "tool": "Needle",
            "delivery": "Small bolus",
            "volume_range": "0.1-0.2"
        },
        {
            "code": "E2",
            "product": "VL",
            "facial_landmarks": "Eyebrow",
            "target_layer": "Bone",
            "tool": "Needle",
            "delivery": "Small bolus",
            "volume_range": "0.1-0.2"
        },
        {
            "code": "E3",
            "product": "VL",
            "facial_landmarks": "Eyebrow",
            "target_layer": "Bone",
            "tool": "Needle",
            "delivery": "Small bolus",
            "volume_range": "0.1-0.2"
        },
        {
            "code": "G1",
            "product": "VB",
            "facial_landmarks": "Glabella",
            "target_layer": "Specialist Injectors",
            "tool": "Cannula",
            "delivery": "Fanning",
            "volume_range": "0.1-0.2"
        },
        {
            "code": "G2",
            "product": "VB",
            "facial_landmarks": "Glabella",
            "target_layer": "Specialist Injectors",
            "tool": "Cannula",
            "delivery": "Fanning",
            "volume_range": "0.1-0.2"
        },
        {
            "code": "O1",
            "product": "VB (mild depression)",
            "facial_landmarks": "Periorbital area",
            "target_layer": "Bone",
            "tool": "Cannula",
            "delivery": "Fanning",
            "volume_range": "0.2-0.5"
        },
        {
            "code": "O2",
            "product": "VB (mild depression)",
            "facial_landmarks": "Periorbital area",
            "target_layer": "Bone",
            "tool": "Cannula",
            "delivery": "Fanning",
            "volume_range": "0.2-0.5"
        },
        {
            "code": "O3",
            "product": "VB (mild depression)",
            "facial_landmarks": "Periorbital area",
            "target_layer": "Bone",
            "tool": "Cannula",
            "delivery": "Fanning",
            "volume_range": "0.2-0.5"
        },
        {
            "code": "Tt1",
            "product": "VB",
            "facial_landmarks": "",
            "target_layer": "",
            "tool": "Cannula",
            "delivery": "Micro-aliquot",
            "volume_range": "0.1-0.3"
        },
        {
            "code": "Tt2",
            "product": "VB",
            "facial_landmarks": "",
            "target_layer": "",
            "tool": "Cannula",
            "delivery": "Micro-aliquot",
            "volume_range": "0.1-0.3"
        },
        {
            "code": "Tt3",
            "product": "VB",
            "facial_landmarks": "",
            "target_layer": "",
            "tool": "Cannula",
            "delivery": "Micro-aliquot",
            "volume_range": "0.1-0.3"
        },
        {
            "code": "Ck1",
            "product": "VM",
            "facial_landmarks": "Cheeks",
            "target_layer": "Bone",
            "tool": "Needle",
            "delivery": "Small bolus",
            "volume_range": "0.1+ 0.1+ 0.1"
        },
        {
            "code": "Ck2",
            "product": "VM",
            "facial_landmarks": "Cheeks",
            "target_layer": "Bone",
            "tool": "Needle",
            "delivery": "Small bolus",
            "volume_range": "0.2-0.4"
        },
        {
            "code": "Ck3",
            "product": "VM \nVM \nVL",
            "facial_landmarks": "Cheeks \nDeep malar \nSOOF",
            "target_layer": "Bone",
            "tool": "Needle \nCannula \nCannula",
            "delivery": "Small bolus \nFanning \nFanning",
            "volume_range": "0.1-0.5 \n0.1-0.5 \n0.1-0.5"
        },
        {
            "code": "Ck4",
            "product": "VM",
            "facial_landmarks": "Cheeks",
            "target_layer": "Sub-cutaneous",
            "tool": "Cannula",
            "delivery": "Fanning",
            "volume_range": "0.2-1.0"
        },
        {
            "code": "Ck5",
            "product": "VM",
            "facial_landmarks": "Cheeks",
            "target_layer": "Sub-cutaneous",
            "tool": "Cannula",
            "delivery": "Fanning",
            "volume_range": "0.2-1.0"
        },
        {
            "code": "NL1",
            "product": "VL (severe NLF) \nVL (moderate NLF) \nVL (moderate NLF)",
            "facial_landmarks": "Nasolabial folds",
            "target_layer": "Subcutaneous \nSub-dermal \nBone",
            "tool": "Cannula \nNeedle \nNeedle ",
            "delivery": "Fanning \nFanning \nSmall bolus",
            "volume_range": "0.2-0.4 \n0.2-0.4 \n0.2-0.4"
        },
        {
            "code": "NL2",
            "product": "VL (severe NLF) \nVL (moderate NLF)",
            "facial_landmarks": "Nasolabial folds",
            "target_layer": "Subcutaneous \nSub-dermal",
            "tool": "Cannula \nNeedle ",
            "delivery": "Linear \nLinear",
            "volume_range": "0.2-0.4 \n0.2-0.4"
        },
        {
            "code": "NL3",
            "product": "VL (severe NLF) \nVL (moderate NLF)",
            "facial_landmarks": "Nasolabial folds",
            "target_layer": "Subcutaneous \nSub-dermal",
            "tool": "Cannula \nNeedle ",
            "delivery": "Linear \nLinear",
            "volume_range": "0.1-0.2 \n0.1-0.2"
        },
        {
            "code": "Lp1",
            "product": "VL (lip volume)",
            "facial_landmarks": "Lips",
            "target_layer": "Mucosa",
            "tool": "Needle",
            "delivery": "Linear",
            "volume_range": "0.1-0.2"
        },
        {
            "code": "Lp1_Lower",
            "product": "VL (lip volume)",
            "facial_landmarks": "Lips",
            "target_layer": "Mucosa",
            "tool": "Needle",
            "delivery": "Linear",
            "volume_range": "0.1-0.2"
        },
        {
            "code": "Lp2",
            "product": "VL",
            "facial_landmarks": "Lips",
            "target_layer": "Mucosa",
            "tool": "Needle",
            "delivery": "Linear",
            "volume_range": "0.05-0.1"
        },
        {
            "code": "Lp3",
            "product": "VL",
            "facial_landmarks": "Lips",
            "target_layer": "Mucosa",
            "tool": "Needle",
            "delivery": "Linear",
            "volume_range": "0.05-0.1"
        },
        {
            "code": "Lp3_Lower",
            "product": "VB",
            "facial_landmarks": "Lips",
            "target_layer": "Mucosa",
            "tool": "Needle",
            "delivery": "Linear",
            "volume_range": "0.05-0.2"
        },
        {
            "code": "Lp4",
            "product": "VL",
            "facial_landmarks": "Lips",
            "target_layer": "Mucosa",
            "tool": "Cannula",
            "delivery": "Aliquot",
            "volume_range": "0.05-0.1"
        },
        {
            "code": "Lp5",
            "product": "VL",
            "facial_landmarks": "Lips",
            "target_layer": "Mucosa",
            "tool": "Cannula",
            "delivery": "Aliquot",
            "volume_range": "0.05-0.1"
        },
        {
            "code": "Lp6",
            "product": "VL",
            "facial_landmarks": "Lips",
            "target_layer": "Mucosa",
            "tool": "Cannula \nNeedle",
            "delivery": "Fanning \nLinear",
            "volume_range": "0.05-0.1"
        },
        {
            "code": "Lp7",
            "product": "VL",
            "facial_landmarks": "Lips",
            "target_layer": "Mucosa",
            "tool": "Needle",
            "delivery": "Linear",
            "volume_range": "0.05-0.1"
        },
        {
            "code": "Lp8",
            "product": "VL \nVB \nVT",
            "facial_landmarks": "Lips",
            "target_layer": "Dermal \nDermal \nDermal",
            "tool": "Cannula \nCannula \nCannula",
            "delivery": "Fanning \nFanning \nFanning",
            "volume_range": "0.1-0.3 \n0.1-0.3 \n0.1-0.3"
        },
        {
            "code": "Lp8_Lower",
            "product": "VL \nVB \nVT",
            "facial_landmarks": "Lips",
            "target_layer": "Dermal \nDermal \nDermal",
            "tool": "Cannula \nCannula \nCannula",
            "delivery": "Fanning \nFanning \nFanning",
            "volume_range": "0.1-0.3 \n0.1-0.3 \n0.1-0.3"
        },
        {
            "code": "M1",
            "product": "VL",
            "facial_landmarks": "Marionette lines",
            "target_layer": "Dermal \nSubcutaneous",
            "tool": "Needle \nCannula",
            "delivery": "Linear",
            "volume_range": "0.1-0.2"
        },
        {
            "code": "M2",
            "product": "VL",
            "facial_landmarks": "Marionette lines",
            "target_layer": "Dermal \nSubcutaneous",
            "tool": "Needle \nCannula",
            "delivery": "Linear",
            "volume_range": "0.2-0.4"
        },
        {
            "code": "M3",
            "product": "VL",
            "facial_landmarks": "Marionette lines",
            "target_layer": "Dermal \nSubcutaneous",
            "tool": "Needle \nCannula",
            "delivery": "Linear",
            "volume_range": "0.2-0.4"
        },
        {
            "code": "C1",
            "product": "VM \nVL",
            "facial_landmarks": "Chin",
            "target_layer": "Fat pads \nFat pads",
            "tool": "Needle/Cannula \nNeedle/Cannula",
            "delivery": "Linear/Fanning \nLinear/Fanning",
            "volume_range": "0.5-1.0 \n0.5-1.0"
        },
        {
            "code": "C2",
            "product": "VM \nVM",
            "facial_landmarks": "Chin",
            "target_layer": "Fat pads \nBone",
            "tool": "Needle/Cannula \nNeedle",
            "delivery": "Small bolus \nSmall bolus",
            "volume_range": "0.2-0.4 \n0.2-0.4"
        },
        {
            "code": "C3",
            "product": "VM",
            "facial_landmarks": "Chin",
            "target_layer": "Bone",
            "tool": "Needle/Cannula",
            "delivery": "Small bolus",
            "volume_range": "0.2-0.4"
        },
        {
            "code": "C4",
            "product": "VM",
            "facial_landmarks": "Chin",
            "target_layer": "Fat pads",
            "tool": "Needle/Cannula",
            "delivery": "Linear/Small bolus/Fanning",
            "volume_range": "0.2-0.4"
        },
        {
            "code": "C5",
            "product": "VM",
            "facial_landmarks": "Chin",
            "target_layer": "Bone",
            "tool": "Needle/Cannula",
            "delivery": "Linear/Small bolus/Fanning",
            "volume_range": "0.2-0.4"
        },
        {
            "code": "C6",
            "product": "VM",
            "facial_landmarks": "Chin",
            "target_layer": "Fat pads",
            "tool": "Needle/Cannula",
            "delivery": "Linear/Small bolus/Fanning",
            "volume_range": "0.1-0.5"
        },
        {
            "code": "Jw1",
            "product": "VL \nVM",
            "facial_landmarks": "Jawline",
            "target_layer": "Fat pads \nBone",
            "tool": "Needle/Needle",
            "delivery": "Fanning \nSmall bolus",
            "volume_range": "0.2-0.5 \n0.2-0.5"
        },
        {
            "code": "Jw2",
            "product": "VL \nVM",
            "facial_landmarks": "Jawline",
            "target_layer": "Fat pads \nFat pads",
            "tool": "Needle/Cannula",
            "delivery": "Linear",
            "volume_range": "0.5-1.0"
        },
        {
            "code": "Jw3",
            "product": "VL \nVM",
            "facial_landmarks": "Jawline",
            "target_layer": "Fat pads \nFat pads",
            "tool": "Needle/Cannula",
            "delivery": "Linear",
            "volume_range": "0.2-0.5"
        },
        {
            "code": "Jw4",
            "product": "VM",
            "facial_landmarks": "Jawline",
            "target_layer": "Fat pads",
            "tool": "Needle/Cannula",
            "delivery": "Fanning/Linear/Small bolus",
            "volume_range": "0.1-0.5"
        },
        {
            "code": "Jw5",
            "product": "VM",
            "facial_landmarks": "Jawline",
            "target_layer": "Bone",
            "tool": "Needle",
            "delivery": "Small bolus",
            "volume_range": "0.1-0.5"
        }
    ]
    }